%YAML 1.1
%TAG !u! tag:unity3d.com,2011:
--- !u!21 &2100000
Material:
  serializedVersion: 3
  m_ObjectHideFlags: 0
  m_PrefabParentObject: {fileID: 0}
  m_PrefabInternal: {fileID: 0}
  m_Name: Fantasy Skin Atlas
  m_Shader: {fileID: 4800000, guid: f0158d23026963f4ba301b99ab9b050a, type: 3}
  m_ShaderKeywords: []
  m_CustomRenderQueue: 3005
  m_SavedProperties:
    serializedVersion: 2
    m_TexEnvs:
      data:
        first:
          name: _MainTex
        second:
          m_Texture: {fileID: 2800000, guid: 74d749882c2b9ec4aa3a232662d4ac76, type: 3}
          m_Scale: {x: 1, y: 1}
          m_Offset: {x: 0, y: 0}
    m_Floats:
      data:
        first:
          name: _Shininess
        second: .699999988
    m_Colors:
      data:
        first:
          name: _Color
        second: {r: 1, g: 1, b: 1, a: 1}
      data:
        first:
          name: _Emission
        second: {r: 0, g: 0, b: 0, a: 0}
      data:
        first:
          name: _SpecColor
        second: {r: 1, g: 1, b: 1, a: 1}
      data:
        first:
          name: CameraPos
        second: {r: 0, g: 0, b: 0, a: 0}
      data:
        first:
          name: ClipInfo
        second: {r: 1610612740, g: 1601664900, b: 0, a: 0}
